…
homicide_df
```

    ## # A tibble: 52,178 x 2
    ##    city_state     resolved
    ##    <chr>          <chr>   
    ##  1 Albuquerque_NM unsolved
    ##  2 Albuquerque_NM solved  
    ##  3 Albuquerque_NM unsolved
    ##  4 Albuquerque_NM solved  
    ##  5 Albuquerque_NM unsolved
    ##  6 Albuquerque_NM unsolved
    ##  7 Albuquerque_NM solved  
    ##  8 Albuquerque_NM solved  
    ##  9 Albuquerque_NM unsolved
    ## 10 Albuquerque_NM unsolved
    ## # ... with 52,168 more rows
…
    ## `summarise()` ungrouping output (override with `.groups` argument)

``` r
aggregate_df
```

    ## # A tibble: 50 x 3
    ##    city_state     hom_total hom_unsolved
    ##    <chr>              <int>        <int>
    ##  1 Albuquerque_NM       378          146
    ##  2 Atlanta_GA           973          373
    ##  3 Baltimore_MD        2827         1825
    ##  4 Baton Rouge_LA       424          196
    ##  5 Birmingham_AL        800          347
    ##  6 Boston_MA            614          310
    ##  7 Buffalo_NY           521          319
    ##  8 Charlotte_NC         687          206
    ##  9 Chicago_IL          5535         4073
    ## 10 Cincinnati_OH        694          309
    ## # ... with 40 more rows
…
``` r
results_df = 
  aggregate_df %>% 
  mutate(
    prop_tests = map2(.x = hom_unsolved, .y = hom_total, ~prop.test(x = .x, n = .y)),
    tidy_tests = map(.x = prop_tests, ~broom::tidy(.x))
  ) %>% 
  select(-prop_tests) %>% 
  unnest(tidy_tests) %>% 
  select(city_state, estimate, conf.low, conf.high)

results_df
```

    ## # A tibble: 50 x 4
    ##    city_state     estimate conf.low conf.high
    ##    <chr>             <dbl>    <dbl>     <dbl>
    ##  1 Albuquerque_NM    0.386    0.337     0.438
    ##  2 Atlanta_GA        0.383    0.353     0.415
    ##  3 Baltimore_MD      0.646    0.628     0.663
    ##  4 Baton Rouge_LA    0.462    0.414     0.511
    ##  5 Birmingham_AL     0.434    0.399     0.469
    ##  6 Boston_MA         0.505    0.465     0.545
    ##  7 Buffalo_NY        0.612    0.569     0.654
    ##  8 Charlotte_NC      0.300    0.266     0.336
    ##  9 Chicago_IL        0.736    0.724     0.747
    ## 10 Cincinnati_OH     0.445    0.408     0.483
    ## # ... with 40 more rows
…
study_df
```

    ## # A tibble: 160 x 5
    ##    subjectID group      Week  Observations  week
    ##    <chr>     <chr>      <chr>        <dbl> <dbl>
    ##  1 "01 "     " Control" 1             0.2      1
    ##  2 "01 "     " Control" 2            -1.31     2
    ##  3 "01 "     " Control" 3             0.66     3
    ##  4 "01 "     " Control" 4             1.96     4
    ##  5 "01 "     " Control" 5             0.23     5
    ##  6 "01 "     " Control" 6             1.09     6
    ##  7 "01 "     " Control" 7             0.05     7
    ##  8 "01 "     " Control" 8             1.94     8
    ##  9 "02 "     " Control" 1             1.13     1
    ## 10 "02 "     " Control" 2            -0.88     2
    ## # ... with 150 more rows
…
  sim_data %>% 
    select(estimate, p.value)
}

sim_results =
  rerun(5000, sim_mean_p(mu = 0)) %>% 
  bind_rows()

sim_results %>% 
  select(estimate, p.value)
```

    ## # A tibble: 5,000 x 2
    ##    estimate p.value
    ##       <dbl>   <dbl>
    ##  1   0.998    0.253
    ##  2   1.37     0.123
    ##  3  -0.682    0.409
    ##  4  -0.0530   0.944
    ##  5   1.12     0.261
    ##  6   0.606    0.421
    ##  7   0.0201   0.981
    ##  8  -0.361    0.607
    ##  9  -0.149    0.886
    ## 10   1.43     0.103
    ## # ... with 4,990 more rows
…
    ## Warning: `cols` is now required when using unnest().
    ## Please use `cols = c(estimate)`

``` r
multi_means
```

    ## # A tibble: 35,000 x 3
    ##    multi_mu estimate p.value
    ##       <dbl>    <dbl>   <dbl>
    ##  1        0   0.411   0.680 
    ##  2        0   0.199   0.830 
    ##  3        0  -1.03    0.174 
    ##  4        0  -0.0481  0.949 
    ##  5        0  -0.317   0.670 
    ##  6        0   0.561   0.493 
    ##  7        0  -1.61    0.0542
    ##  8        0   0.454   0.603 
    ##  9        0  -0.457   0.618 
    ## 10        0   0.861   0.406 
    ## # ... with 34,990 more rows
…
